{
 "SoundBanksInfo": {
  "Platform": "Windows",
  "BasePlatform": "Windows",
  "SchemaVersion": "12",
  "SoundbankVersion": "140",
  "RootPaths": {
   "ProjectRoot": "F:\\XSSR\\Senior\\Projects\\Class01\\Senior_locomotion\\Wwise_senior_locomotion\\",
   "SourceFilesRoot": "F:\\XSSR\\Senior\\Projects\\Class01\\Senior_locomotion\\Wwise_senior_locomotion\\.cache\\Windows\\",
   "SoundBanksRoot": "F:\\XSSR\\Senior\\Projects\\Class01\\Senior_locomotion\\Wwise_senior_locomotion\\GeneratedSoundBanks\\Windows\\",
   "ExternalSourcesInputFile": "",
   "ExternalSourcesOutputRoot": "F:\\XSSR\\Senior\\Projects\\Class01\\Senior_locomotion\\Wwise_senior_locomotion\\GeneratedSoundBanks\\Windows"
  },
  "SoundBanks": [
   {
    "Id": "1355168291",
    "GUID": "{701ECBBD-9C7B-4030-8CDB-749EE5D1C7B9}",
    "Language": "SFX",
    "Hash": "2390226002",
    "ObjectPath": "Init",
    "ShortName": "Init",
    "Path": "Init.bnk",
    "StateGroups": [
     {
      "Id": "806345494",
      "Name": "STATE_Environment",
      "ObjectPath": "\\States\\Default Work Unit\\STATE_Environment",
      "GUID": "{A4216E21-D606-4B71-A5D9-401FD03B2614}",
      "States": [
       {
        "Id": "748895195",
        "Name": "None",
        "ObjectPath": "\\States\\Default Work Unit\\STATE_Environment\\None",
        "GUID": "{710C37EB-6910-4741-8EC6-01382545A4D2}"
       },
       {
        "Id": "340398852",
        "Name": "Indoor",
        "ObjectPath": "\\States\\Default Work Unit\\STATE_Environment\\Indoor",
        "GUID": "{8D5D7767-2749-4BE1-A39A-84FB538F442B}"
       },
       {
        "Id": "144697359",
        "Name": "Outdoor",
        "ObjectPath": "\\States\\Default Work Unit\\STATE_Environment\\Outdoor",
        "GUID": "{8BD92203-F493-4889-8649-7005FCA51382}"
       }
      ]
     }
    ]
   }
  ]
 }
}